<svg width="16" height="17" viewBox="0 0 16 17" fill="none" xmlns="http://www.w3.org/2000/svg">
<path d="M7.95015 14.7389C11.609 14.7389 14.5751 11.8429 14.5751 8.27041C14.5751 4.69794 11.609 1.80188 7.95015 1.80188C4.29129 1.80188 1.3252 4.69794 1.3252 8.27041C1.3252 11.8429 4.29129 14.7389 7.95015 14.7389Z" stroke="#DBDFEA" stroke-width="0.8" stroke-linecap="round" stroke-linejoin="round"/>
<path d="M7.94979 10.8578C9.41333 10.8578 10.5998 9.69939 10.5998 8.2704C10.5998 6.84141 9.41333 5.68298 7.94979 5.68298C6.48624 5.68298 5.2998 6.84141 5.2998 8.2704C5.2998 9.69939 6.48624 10.8578 7.94979 10.8578Z" stroke="#DBDFEA" stroke-width="0.8" stroke-linecap="round" stroke-linejoin="round"/>
<path d="M3.26562 3.69714L6.07461 6.4398" stroke="#DBDFEA" stroke-width="0.8" stroke-linecap="round" stroke-linejoin="round"/>
<path d="M9.8252 10.101L12.6342 12.8436" stroke="#DBDFEA" stroke-width="0.8" stroke-linecap="round" stroke-linejoin="round"/>
<path d="M9.8252 6.4398L12.6342 3.69714" stroke="#DBDFEA" stroke-width="0.8" stroke-linecap="round" stroke-linejoin="round"/>
<path d="M9.8252 6.43976L12.1638 4.15637" stroke="#DBDFEA" stroke-width="0.8" stroke-linecap="round" stroke-linejoin="round"/>
<path d="M3.26562 12.8436L6.07461 10.101" stroke="#DBDFEA" stroke-width="0.8" stroke-linecap="round" stroke-linejoin="round"/>
</svg>
