<svg width="21" height="20" viewBox="0 0 21 20" fill="none" xmlns="http://www.w3.org/2000/svg">
<path d="M9.41667 15.8333C13.0986 15.8333 16.0833 12.8486 16.0833 9.16667C16.0833 5.48477 13.0986 2.5 9.41667 2.5C5.73477 2.5 2.75 5.48477 2.75 9.16667C2.75 12.8486 5.73477 15.8333 9.41667 15.8333Z" stroke="#DBDFEA" stroke-width="0.8" stroke-linecap="round" stroke-linejoin="round"/>
<path d="M17.75 17.5L14.125 13.875" stroke="#DBDFEA" stroke-width="0.8" stroke-linecap="round" stroke-linejoin="round"/>
</svg>
